Import and prepare swe eel data
…
Durif vs Visual

# check how durif correspond to visual
sb_ind2 %>% summarise(n = n(), .by = c(durif_stage,visual_stage)) %>% arrange(-n)

summarise: now 34 rows and 3 columns, ungrouped

# A tibble: 34 × 3
   durif_stage visual_stage       n
   <chr>       <chr>          <int>
 1 <NA>        ""             14113
 2 <NA>        "Yngel"         8709
 3 FIV         "Blankål"       4498
 4 FIV         ""              3683
 5 FIII        ""              3581
 6 FIII        "Blankål"       3472
 7 <NA>        "Gulål"         1611
 8 FIII        "Halvblank ål"  1358
 9 FIV         "Halvblank ål"  1337
10 FII         "Gulål"         1275
# ℹ 24 more rows
…
